%YAML 1.1
%TAG !u! tag:unity3d.com,2011:
--- !u!114 &11400000
MonoBehaviour:
  m_ObjectHideFlags: 0
  m_CorrespondingSourceObject: {fileID: 0}
  m_PrefabInstance: {fileID: 0}
  m_PrefabAsset: {fileID: 0}
  m_GameObject: {fileID: 0}
  m_Enabled: 1
  m_EditorHideFlags: 0
  m_Script: {fileID: -1893448595, guid: a040fb66244a7f54289914d98ea4ef7d, type: 3}
  m_Name: Change_Camera_V4
  m_EditorClassIdentifier: 
  _data:
    _json: '{"graph":{"variables":{"collection":{"$content":[{"name":"VectorNormal","value":{"x":0.0,"y":0.0,"z":0.0,"$type":"UnityEngine.Vector3"},"$version":"A"},{"name":"Xangle","value":{"$content":-90.0,"$type":"System.Single"},"$version":"A"},{"name":"tCount","value":{"$content":0.0,"$type":"System.Single"},"$version":"A"},{"name":"OriginRotation","value":{"x":0.0,"y":0.0,"z":0.0,"$type":"UnityEngine.Vector3"},"$version":"A"},{"name":"can
      use","value":{"$content":true,"$type":"System.Boolean"},"$version":"A"},{"name":"TimeToShow","value":{"$content":99.0,"$type":"System.Single"},"$version":"A"}],"$version":"A"},"$version":"A"},"controlInputDefinitions":[{"key":"Input","label":null,"summary":null,"hideLabel":false}],"controlOutputDefinitions":[{"key":"Output","label":null,"summary":null,"hideLabel":false}],"valueInputDefinitions":[{"hasDefaultValue":false,"defaultValue":{"x":0.0,"y":0.0,"z":0.0,"$type":"UnityEngine.Vector3"},"_type":"UnityEngine.Vector3","key":"FromDirection","label":null,"summary":null,"hideLabel":false},{"hasDefaultValue":false,"defaultValue":{"x":0.0,"y":0.0,"z":0.0,"$type":"UnityEngine.Vector3"},"_type":"UnityEngine.Vector3","key":"ToDirection","label":null,"summary":null,"hideLabel":false},{"hasDefaultValue":false,"defaultValue":{"x":0.0,"y":0.0,"z":0.0,"$type":"UnityEngine.Vector3"},"_type":"UnityEngine.Vector3","key":"Axis","label":null,"summary":null,"hideLabel":false},{"hasDefaultValue":true,"defaultValue":{"$content":90.0,"$type":"System.Single"},"_type":"System.Single","key":"Angle","label":null,"summary":null,"hideLabel":false},{"hasDefaultValue":false,"defaultValue":{"x":0.0,"y":0.0,"z":0.0,"$type":"UnityEngine.Vector3"},"_type":"UnityEngine.Vector3","key":"Axis2","label":null,"summary":null,"hideLabel":false},{"hasDefaultValue":true,"defaultValue":{"$content":0.0,"$type":"System.Single"},"_type":"System.Single","key":"Angle
      2","label":null,"summary":null,"hideLabel":false}],"valueOutputDefinitions":[],"title":null,"summary":null,"pan":{"x":-2446.055,"y":275.6667},"zoom":0.9,"elements":[{"defaultValues":{},"position":{"x":-3130.0,"y":41.0},"guid":"d47749ff-2235-4328-a5f2-2d81f9232ec1","$version":"A","$type":"Bolt.GraphInput","$id":"23"},{"chainable":false,"member":{"name":"AngleAxis","parameterTypes":["System.Single","UnityEngine.Vector3"],"targetType":"UnityEngine.Quaternion","targetTypeName":"UnityEngine.Quaternion","$version":"A"},"defaultValues":{"%angle":{"$content":0.0,"$type":"System.Single"},"%axis":{"x":-1.0,"y":0.0,"z":0.0,"$type":"UnityEngine.Vector3"}},"position":{"x":-2378.0,"y":-31.0},"guid":"af60605f-cdc1-4017-ae1a-7295b1bf864e","$version":"A","$type":"Bolt.InvokeMember","$id":"25"},{"member":{"name":"identity","parameterTypes":null,"targetType":"UnityEngine.Quaternion","targetTypeName":"UnityEngine.Quaternion","$version":"A"},"defaultValues":{},"position":{"x":-1667.0,"y":2.0},"guid":"970a4ff8-a479-4139-a263-2e2fb3a09cf1","$version":"A","$type":"Bolt.GetMember","$id":"28"},{"defaultValues":{},"position":{"x":-1463.0,"y":-91.0},"guid":"139507a8-e568-418f-8c2a-fedb18e08f42","$version":"A","$type":"Bolt.GenericMultiply","$id":"31"},{"numeric":true,"defaultValues":{"b":{"$content":1.0,"$type":"System.Single"}},"position":{"x":-2720.0,"y":286.0},"guid":"e5c39cf9-20e9-4ae9-8df1-601676709352","$version":"A","$type":"Bolt.Less","$id":"33"},{"member":{"name":"deltaTime","parameterTypes":null,"targetType":"UnityEngine.Time","targetTypeName":"UnityEngine.Time","$version":"A"},"defaultValues":{},"position":{"x":-1900.0,"y":310.0},"guid":"8c10ac85-3a02-47ef-a4da-3991fb277bf0","$version":"A","$type":"Bolt.GetMember","$id":"35"},{"chainable":false,"member":{"name":"FromToRotation","parameterTypes":["UnityEngine.Vector3","UnityEngine.Vector3"],"targetType":"UnityEngine.Quaternion","targetTypeName":"UnityEngine.Quaternion","$version":"A"},"defaultValues":{"%fromDirection":{"x":0.0,"y":0.0,"z":0.0,"$type":"UnityEngine.Vector3"},"%toDirection":{"x":0.0,"y":0.0,"z":0.0,"$type":"UnityEngine.Vector3"}},"position":{"x":-2379.0,"y":-163.0},"guid":"573b8c5f-4385-4799-8386-5a3e461dba02","$version":"A","$type":"Bolt.InvokeMember","$id":"38"},{"defaultValues":{},"position":{"x":-2093.0,"y":324.0},"guid":"d0bcb156-9e36-400a-a29b-f7c98fed9d0b","$version":"A","$type":"Bolt.GraphOutput","$id":"41"},{"member":{"name":"rotation","parameterTypes":null,"targetType":"UnityEngine.Transform","targetTypeName":"UnityEngine.Transform","$version":"A"},"defaultValues":{"target":null},"position":{"x":-1678.0,"y":-98.0},"guid":"96e67b62-d3bc-4fb3-88b6-c8b692b06edd","$version":"A","$type":"Bolt.GetMember","$id":"43"},{"chainable":false,"member":{"name":"rotation","parameterTypes":null,"targetType":"UnityEngine.Transform","targetTypeName":"UnityEngine.Transform","$version":"A"},"defaultValues":{"target":null},"position":{"x":-1001.0,"y":66.0},"guid":"417aa833-9d78-42e3-bed3-66139285bf1b","$version":"A","$type":"Bolt.SetMember","$id":"46"},{"chainable":false,"member":{"name":"Lerp","parameterTypes":["UnityEngine.Quaternion","UnityEngine.Quaternion","System.Single"],"targetType":"UnityEngine.Quaternion","targetTypeName":"UnityEngine.Quaternion","$version":"A"},"defaultValues":{"%t":{"$content":1.0,"$type":"System.Single"}},"position":{"x":-1222.0,"y":87.0},"guid":"f0255db1-027d-4799-8b74-a1673d3b9517","$version":"A","$type":"Bolt.InvokeMember","$id":"49"},{"defaultValues":{},"position":{"x":-2540.0,"y":156.0},"guid":"703784e9-88c5-4ec5-99eb-67beafa14f90","$version":"A","$type":"Bolt.Branch","$id":"52"},{"defaultValues":{"b":{"$content":1.0,"$type":"System.Single"}},"position":{"x":-1724.0,"y":214.0},"guid":"f89ea4f5-9fa3-4ca5-9cd2-1b60d689395d","$version":"A","$type":"Bolt.ScalarAdd","$id":"54"},{"kind":"Graph","defaultValues":{"name":{"$content":"tCount","$type":"System.String"}},"position":{"x":-2280.0,"y":307.0},"guid":"56e4794d-6bb9-4ac7-a787-92466a924c73","$version":"A","$type":"Bolt.SetVariable","$id":"56"},{"type":"System.Single","value":{"$content":0.0,"$type":"System.Single"},"defaultValues":{},"position":{"x":-2475.0,"y":352.0},"guid":"260b4c97-b078-43bd-978f-4e745ea1db33","$version":"A","$type":"Bolt.Literal","$id":"58"},{"defaultValues":{},"position":{"x":-2079.0,"y":-92.0},"guid":"fb525de1-9641-4dde-bccd-07eee3bf72e1","$version":"A","$type":"Bolt.GenericMultiply","$id":"60"},{"specifyFallback":false,"kind":"Graph","defaultValues":{"name":{"$content":"tCount","$type":"System.String"}},"position":{"x":-1912.0,"y":206.0},"guid":"8934c0ba-4205-46ce-a8a4-d625a8790032","$version":"A","$type":"Bolt.GetVariable","$id":"62"},{"specifyFallback":false,"kind":"Graph","defaultValues":{"name":{"$content":"tCount","$type":"System.String"}},"position":{"x":-2932.0,"y":351.0},"guid":"746865ce-334a-4143-b2c3-d625ff32158b","$version":"A","$type":"Bolt.GetVariable","$id":"64"},{"kind":"Graph","defaultValues":{"name":{"$content":"tCount","$type":"System.String"}},"position":{"x":-1518.0,"y":148.0},"guid":"e2ce8b46-29bb-483b-8a61-5524e7e81934","$version":"A","$type":"Bolt.SetVariable","$id":"66"},{"chainable":false,"member":{"name":"AngleAxis","parameterTypes":["System.Single","UnityEngine.Vector3"],"targetType":"UnityEngine.Quaternion","targetTypeName":"UnityEngine.Quaternion","$version":"A"},"defaultValues":{"%angle":{"$content":0.0,"$type":"System.Single"},"%axis":{"x":-1.0,"y":0.0,"z":0.0,"$type":"UnityEngine.Vector3"}},"position":{"x":-2186.0,"y":89.0},"guid":"7825cb03-00ca-4196-980d-14879a794b22","$version":"A","$type":"Bolt.InvokeMember","$id":"68"},{"defaultValues":{},"position":{"x":-1898.0,"y":52.0},"guid":"85a2f518-6c5c-4a89-8a86-1cb393dc7384","$version":"A","$type":"Bolt.GenericMultiply","$id":"71"},{"sourceUnit":{"$ref":"49"},"sourceKey":"exit","destinationUnit":{"$ref":"46"},"destinationKey":"assign","guid":"ae541c88-8421-42f3-9fae-b6a333740849","$type":"Bolt.ControlConnection"},{"sourceUnit":{"$ref":"52"},"sourceKey":"ifTrue","destinationUnit":{"$ref":"66"},"destinationKey":"assign","guid":"1dbe3122-fbf8-496f-8cb5-db5268bb5ef2","$type":"Bolt.ControlConnection"},{"sourceUnit":{"$ref":"52"},"sourceKey":"ifFalse","destinationUnit":{"$ref":"56"},"destinationKey":"assign","guid":"60f0caea-89cc-4439-887f-7d7332b19112","$type":"Bolt.ControlConnection"},{"sourceUnit":{"$ref":"66"},"sourceKey":"assigned","destinationUnit":{"$ref":"49"},"destinationKey":"enter","guid":"edf91ce7-4f78-4421-8538-c32f8119c7f0","$type":"Bolt.ControlConnection"},{"sourceUnit":{"$ref":"56"},"sourceKey":"assigned","destinationUnit":{"$ref":"41"},"destinationKey":"Output","guid":"79aa795d-1e89-4bd4-9aa5-041196769685","$type":"Bolt.ControlConnection"},{"sourceUnit":{"$ref":"23"},"sourceKey":"Input","destinationUnit":{"$ref":"52"},"destinationKey":"enter","guid":"f6e7e7c4-6c08-4f02-aa2d-318631a222e6","$type":"Bolt.ControlConnection"},{"sourceUnit":{"$ref":"54"},"sourceKey":"sum","destinationUnit":{"$ref":"66"},"destinationKey":"input","guid":"ae14921a-7e3e-4647-baf8-01d3fbff01b8","$type":"Bolt.ValueConnection"},{"sourceUnit":{"$ref":"35"},"sourceKey":"value","destinationUnit":{"$ref":"54"},"destinationKey":"b","guid":"535dcdef-696c-4753-a358-ff372e2ced4c","$type":"Bolt.ValueConnection"},{"sourceUnit":{"$ref":"38"},"sourceKey":"result","destinationUnit":{"$ref":"60"},"destinationKey":"a","guid":"c3a8d76f-024c-48fa-8375-6b4c107fddd0","$type":"Bolt.ValueConnection"},{"sourceUnit":{"$ref":"62"},"sourceKey":"value","destinationUnit":{"$ref":"54"},"destinationKey":"a","guid":"386bb432-e1dd-457c-8afb-b359f400aa1b","$type":"Bolt.ValueConnection"},{"sourceUnit":{"$ref":"49"},"sourceKey":"result","destinationUnit":{"$ref":"46"},"destinationKey":"input","guid":"9d342593-35b4-459c-99d0-5a3e7b94eb7b","$type":"Bolt.ValueConnection"},{"sourceUnit":{"$ref":"64"},"sourceKey":"value","destinationUnit":{"$ref":"33"},"destinationKey":"a","guid":"552f2ea8-3656-4f2d-b845-b9e4c4f171ba","$type":"Bolt.ValueConnection"},{"sourceUnit":{"$ref":"66"},"sourceKey":"output","destinationUnit":{"$ref":"49"},"destinationKey":"%t","guid":"4eb2796a-b847-4336-b051-7614a0c34ccd","$type":"Bolt.ValueConnection"},{"sourceUnit":{"$ref":"33"},"sourceKey":"comparison","destinationUnit":{"$ref":"52"},"destinationKey":"condition","guid":"1c913060-5b7f-4185-9dc1-aa2ff6fa655e","$type":"Bolt.ValueConnection"},{"sourceUnit":{"$ref":"25"},"sourceKey":"result","destinationUnit":{"$ref":"60"},"destinationKey":"b","guid":"c95a5191-c94f-4ebf-b403-213d6c0803af","$type":"Bolt.ValueConnection"},{"sourceUnit":{"$ref":"58"},"sourceKey":"output","destinationUnit":{"$ref":"56"},"destinationKey":"input","guid":"2f8648b9-1c9c-4212-9a0a-1aa442444482","$type":"Bolt.ValueConnection"},{"sourceUnit":{"$ref":"43"},"sourceKey":"value","destinationUnit":{"$ref":"31"},"destinationKey":"a","guid":"1eb21da2-1f89-4daf-8330-78d572cd0592","$type":"Bolt.ValueConnection"},{"sourceUnit":{"$ref":"28"},"sourceKey":"value","destinationUnit":{"$ref":"31"},"destinationKey":"b","guid":"79b43fd0-5d17-4d57-a596-bb6251d7b47c","$type":"Bolt.ValueConnection"},{"sourceUnit":{"$ref":"31"},"sourceKey":"product","destinationUnit":{"$ref":"49"},"destinationKey":"%a","guid":"f85f6d7e-c177-45c0-8daf-5db649024963","$type":"Bolt.ValueConnection"},{"sourceUnit":{"$ref":"23"},"sourceKey":"FromDirection","destinationUnit":{"$ref":"38"},"destinationKey":"%fromDirection","guid":"f72d7d88-6b51-4f7c-9e45-d5c4083cfc26","$type":"Bolt.ValueConnection"},{"sourceUnit":{"$ref":"23"},"sourceKey":"ToDirection","destinationUnit":{"$ref":"38"},"destinationKey":"%toDirection","guid":"1842d413-d3f1-4925-8aa4-bb01539d1ae5","$type":"Bolt.ValueConnection"},{"sourceUnit":{"$ref":"23"},"sourceKey":"Axis","destinationUnit":{"$ref":"25"},"destinationKey":"%axis","guid":"d9ce7e86-6b70-4e0c-9e10-ffadf7685a59","$type":"Bolt.ValueConnection"},{"sourceUnit":{"$ref":"23"},"sourceKey":"Angle","destinationUnit":{"$ref":"25"},"destinationKey":"%angle","guid":"0acf0862-e044-449e-a7f3-67f157c6eb71","$type":"Bolt.ValueConnection"},{"sourceUnit":{"$ref":"68"},"sourceKey":"result","destinationUnit":{"$ref":"71"},"destinationKey":"b","guid":"47e3d37c-badf-47bd-8763-8b61ae007ee2","$type":"Bolt.ValueConnection"},{"sourceUnit":{"$ref":"60"},"sourceKey":"product","destinationUnit":{"$ref":"71"},"destinationKey":"a","guid":"39c7fd5f-4bcf-40de-a15a-55565e07f8a7","$type":"Bolt.ValueConnection"},{"sourceUnit":{"$ref":"71"},"sourceKey":"product","destinationUnit":{"$ref":"49"},"destinationKey":"%b","guid":"e4b4a364-6f90-4c43-b8cc-473d8ec80c95","$type":"Bolt.ValueConnection"},{"sourceUnit":{"$ref":"23"},"sourceKey":"Axis2","destinationUnit":{"$ref":"68"},"destinationKey":"%axis","guid":"6cef7d6f-a927-46b9-b227-fb72fdba4f83","$type":"Bolt.ValueConnection"},{"sourceUnit":{"$ref":"23"},"sourceKey":"Angle
      2","destinationUnit":{"$ref":"68"},"destinationKey":"%angle","guid":"027bd72f-0cf0-49b3-8c72-0e1d180db115","$type":"Bolt.ValueConnection"}],"$version":"A"}}'
    _objectReferences: []
