%YAML 1.1
%TAG !u! tag:unity3d.com,2011:
--- !u!114 &11400000
MonoBehaviour:
  m_ObjectHideFlags: 0
  m_CorrespondingSourceObject: {fileID: 0}
  m_PrefabInstance: {fileID: 0}
  m_PrefabAsset: {fileID: 0}
  m_GameObject: {fileID: 0}
  m_Enabled: 1
  m_EditorHideFlags: 0
  m_Script: {fileID: -1893448595, guid: a040fb66244a7f54289914d98ea4ef7d, type: 3}
  m_Name: Portal_Camera
  m_EditorClassIdentifier: 
  _data:
    _json: '{"graph":{"variables":{"collection":{"$content":[{"name":"playerOffsetFromPortal","value":{"x":0.0,"y":0.0,"z":0.0,"$type":"UnityEngine.Vector3"},"$version":"A"},{"name":"angularDifferenceBetweenPortalRotations","value":{"$content":0.0,"$type":"System.Single"},"$version":"A"},{"name":"portalRotationDifference
      ","value":{"x":0.0,"y":0.0,"z":0.0,"w":0.0,"$type":"UnityEngine.Quaternion"},"$version":"A"},{"name":"newCameraDirrection","value":{"x":0.0,"y":0.0,"z":0.0,"$type":"UnityEngine.Vector3"},"$version":"A"}],"$version":"A"},"$version":"A"},"controlInputDefinitions":[],"controlOutputDefinitions":[],"valueInputDefinitions":[],"valueOutputDefinitions":[],"title":null,"summary":null,"pan":{"x":1355.998,"y":468.4213},"zoom":0.35,"elements":[{"defaultValues":{"minuend":{"x":0.0,"y":0.0,"z":0.0,"$type":"UnityEngine.Vector3"},"subtrahend":{"x":0.0,"y":0.0,"z":0.0,"$type":"UnityEngine.Vector3"}},"position":{"x":-679.0,"y":178.0},"guid":"8d84ffc6-749b-4e2a-8156-504a9683e5d9","$version":"A","$type":"Bolt.Vector3Subtract","$id":"13"},{"specifyFallback":false,"kind":"Object","defaultValues":{"name":{"$content":"otherPortal","$type":"System.String"},"object":null},"position":{"x":-1075.0,"y":294.0},"guid":"22736e24-2e0c-40a3-892c-1c5745adcbea","$version":"A","$type":"Bolt.GetVariable","$id":"15"},{"coroutine":false,"defaultValues":{},"position":{"x":-1451.0,"y":53.0},"guid":"01f9d33d-5e33-4f74-ad39-bb0ef9011897","$version":"A","$type":"Bolt.Update","$id":"17"},{"kind":"Graph","defaultValues":{"name":{"$content":"playerOffsetFromPortal","$type":"System.String"}},"position":{"x":-425.0,"y":46.0},"guid":"d32c3435-6f93-437e-b780-1801d1f3bcac","$version":"A","$type":"Bolt.SetVariable","$id":"19"},{"specifyFallback":false,"kind":"Object","defaultValues":{"name":{"$content":"playerCamera","$type":"System.String"},"object":null},"position":{"x":-1057.0,"y":166.0},"guid":"c0cef5c2-deed-4916-99b2-9f4ef9cb767d","$version":"A","$type":"Bolt.GetVariable","$id":"21"},{"member":{"name":"position","parameterTypes":null,"targetType":"UnityEngine.Transform","targetTypeName":"UnityEngine.Transform","$version":"A"},"defaultValues":{"target":null},"position":{"x":-865.0,"y":176.0},"guid":"48f7d97a-71cc-4f5f-b271-ee8ab4336689","$version":"A","$type":"Bolt.GetMember","$id":"23"},{"specifyFallback":false,"kind":"Graph","defaultValues":{"name":{"$content":"playerOffsetFromPortal","$type":"System.String"}},"position":{"x":-38.0,"y":332.0},"guid":"5adf6cfc-a752-436f-a1d0-4f07caa9a7d9","$version":"A","$type":"Bolt.GetVariable","$id":"26"},{"defaultValues":{"b":{"x":0.0,"y":0.0,"z":0.0,"$type":"UnityEngine.Vector3"}},"position":{"x":283.0,"y":226.0},"guid":"ade6a168-2b3b-46fe-94c9-5c5151c469c0","$version":"A","$type":"Bolt.Vector3Add","$id":"28"},{"member":{"name":"position","parameterTypes":null,"targetType":"UnityEngine.Transform","targetTypeName":"UnityEngine.Transform","$version":"A"},"defaultValues":{"target":null},"position":{"x":-862.0,"y":300.0},"guid":"a4d6c340-1fba-474f-8bee-6eec7aa9d469","$version":"A","$type":"Bolt.GetMember","$id":"30"},{"chainable":false,"member":{"name":"position","parameterTypes":null,"targetType":"UnityEngine.Transform","targetTypeName":"UnityEngine.Transform","$version":"A"},"defaultValues":{"target":null,"input":{"x":0.0,"y":0.0,"z":0.0,"$type":"UnityEngine.Vector3"}},"position":{"x":420.0,"y":53.0},"guid":"2156156d-8145-4bf6-8934-01887e1aaecc","$version":"A","$type":"Bolt.SetMember","$id":"33"},{"specifyFallback":false,"kind":"Object","defaultValues":{"name":{"$content":"portal","$type":"System.String"},"object":null},"position":{"x":-61.0,"y":196.0},"guid":"4c617cf1-36b1-40b7-b252-b517d63cdb90","$version":"A","$type":"Bolt.GetVariable","$id":"36"},{"member":{"name":"position","parameterTypes":null,"targetType":"UnityEngine.Transform","targetTypeName":"UnityEngine.Transform","$version":"A"},"defaultValues":{"target":null},"position":{"x":113.0,"y":203.0},"guid":"c49247ca-d33f-4728-a4c6-82c58f40b85d","$version":"A","$type":"Bolt.GetMember","$id":"38"},{"kind":"Graph","defaultValues":{"name":{"$content":"angularDifferenceBetweenPortalRotations","$type":"System.String"}},"position":{"x":1200.0,"y":58.0},"guid":"cd238880-8644-4779-ba4f-d897990abbcd","$version":"A","$type":"Bolt.SetVariable","$id":"41"},{"specifyFallback":false,"kind":"Object","defaultValues":{"name":{"$content":"portal","$type":"System.String"},"object":null},"position":{"x":676.0,"y":347.0},"guid":"fd895049-1441-4a76-a1d8-5d52175e959c","$version":"A","$type":"Bolt.GetVariable","$id":"43"},{"chainable":false,"member":{"name":"Angle","parameterTypes":["UnityEngine.Quaternion","UnityEngine.Quaternion"],"targetType":"UnityEngine.Quaternion","targetTypeName":"UnityEngine.Quaternion","$version":"A"},"defaultValues":{},"position":{"x":1036.0,"y":250.0},"guid":"00246298-18bf-4989-bb20-9714bc8bd65e","$version":"A","$type":"Bolt.InvokeMember","$id":"45"},{"member":{"name":"rotation","parameterTypes":null,"targetType":"UnityEngine.Transform","targetTypeName":"UnityEngine.Transform","$version":"A"},"defaultValues":{"target":null},"position":{"x":831.0,"y":344.0},"guid":"80019c2e-80fe-4148-9a91-06be94501191","$version":"A","$type":"Bolt.GetMember","$id":"48"},{"specifyFallback":false,"kind":"Object","defaultValues":{"name":{"$content":"otherPortal","$type":"System.String"},"object":null},"position":{"x":670.0,"y":474.0},"guid":"6a3817a1-7dc6-4b43-8bfe-b6eecbee6761","$version":"A","$type":"Bolt.GetVariable","$id":"51"},{"member":{"name":"rotation","parameterTypes":null,"targetType":"UnityEngine.Transform","targetTypeName":"UnityEngine.Transform","$version":"A"},"defaultValues":{"target":null},"position":{"x":825.0,"y":471.0},"guid":"401ffc07-c219-4de5-87e2-6ae672b1be2c","$version":"A","$type":"Bolt.GetMember","$id":"53"},{"chainable":false,"member":{"name":"LookRotation","parameterTypes":["UnityEngine.Vector3","UnityEngine.Vector3"],"targetType":"UnityEngine.Quaternion","targetTypeName":"UnityEngine.Quaternion","$version":"A"},"defaultValues":{"%forward":{"x":0.0,"y":0.0,"z":0.0,"$type":"UnityEngine.Vector3"},"%upwards":{"x":0.0,"y":0.0,"z":0.0,"$type":"UnityEngine.Vector3"}},"position":{"x":3539.0,"y":172.0},"guid":"deeffef8-a139-404a-b12f-9bdb0b018750","$version":"A","$type":"Bolt.InvokeMember","$id":"56"},{"chainable":false,"member":{"name":"rotation","parameterTypes":null,"targetType":"UnityEngine.Transform","targetTypeName":"UnityEngine.Transform","$version":"A"},"defaultValues":{"target":null},"position":{"x":3720.0,"y":57.0},"guid":"78c81b6a-fe9d-4232-95b8-54fab1eb8100","$version":"A","$type":"Bolt.SetMember","$id":"59"},{"member":{"name":"forward","parameterTypes":null,"targetType":"UnityEngine.Transform","targetTypeName":"UnityEngine.Transform","$version":"A"},"defaultValues":{"target":null},"position":{"x":2604.0,"y":319.0},"guid":"ca25b7ab-e4e7-41ed-b8c4-c7bcb0b26133","$version":"A","$type":"Bolt.GetMember","$id":"62"},{"specifyFallback":false,"kind":"Graph","defaultValues":{"name":{"$content":"portalRotationDifference
      ","$type":"System.String"}},"position":{"x":2434.0,"y":204.0},"guid":"eb07d115-a2a7-450f-9ae7-40913743a9f0","$version":"A","$type":"Bolt.GetVariable","$id":"65"},{"defaultValues":{},"position":{"x":2762.0,"y":201.0},"guid":"6bddc2b7-a9f8-4cd3-9b3d-bffc1acbe2d2","$version":"A","$type":"Bolt.GenericMultiply","$id":"67"},{"member":{"name":"up","parameterTypes":null,"targetType":"UnityEngine.Vector3","targetTypeName":"UnityEngine.Vector3","$version":"A"},"defaultValues":{},"position":{"x":3371.0,"y":341.0},"guid":"229af268-2e5f-41da-856c-4920163694e6","$version":"A","$type":"Bolt.GetMember","$id":"69"},{"kind":"Graph","defaultValues":{"name":{"$content":"newCameraDirrection","$type":"System.String"}},"position":{"x":2932.0,"y":53.0},"guid":"eef8199a-6fd4-4bb8-9c6a-c5500fd40017","$version":"A","$type":"Bolt.SetVariable","$id":"72"},{"member":{"name":"up","parameterTypes":null,"targetType":"UnityEngine.Vector3","targetTypeName":"UnityEngine.Vector3","$version":"A"},"defaultValues":{},"position":{"x":1727.0,"y":316.0},"guid":"9af30a76-1699-4867-9d8b-3518624b9103","$version":"A","$type":"Bolt.GetMember","$id":"74"},{"specifyFallback":false,"kind":"Graph","defaultValues":{"name":{"$content":"angularDifferenceBetweenPortalRotations","$type":"System.String"}},"position":{"x":1565.0,"y":210.0},"guid":"cbe1f938-b6c9-4061-96a3-af08472899e2","$version":"A","$type":"Bolt.GetVariable","$id":"77"},{"chainable":false,"member":{"name":"AngleAxis","parameterTypes":["System.Single","UnityEngine.Vector3"],"targetType":"UnityEngine.Quaternion","targetTypeName":"UnityEngine.Quaternion","$version":"A"},"defaultValues":{"%angle":{"$content":0.0,"$type":"System.Single"},"%axis":{"x":0.0,"y":0.0,"z":0.0,"$type":"UnityEngine.Vector3"}},"position":{"x":1903.0,"y":194.0},"guid":"1d11d7db-52a5-48c4-b8a7-0f5696c77677","$version":"A","$type":"Bolt.InvokeMember","$id":"79"},{"kind":"Graph","defaultValues":{"name":{"$content":"portalRotationDifference
      ","$type":"System.String"}},"position":{"x":2113.0,"y":57.0},"guid":"4e8b4645-08d4-4709-b8a3-1145437d4bd6","$version":"A","$type":"Bolt.SetVariable","$id":"82"},{"specifyFallback":false,"kind":"Graph","defaultValues":{"name":{"$content":"newCameraDirrection","$type":"System.String"}},"position":{"x":3293.0,"y":231.0},"guid":"fd0f3301-2eb3-4359-9a69-377d583d0aa2","$version":"A","$type":"Bolt.GetVariable","$id":"84"},{"specifyFallback":false,"kind":"Object","defaultValues":{"name":{"$content":"playerCamera","$type":"System.String"},"object":null},"position":{"x":2404.0,"y":316.0},"guid":"cf7e8503-5a51-452a-b424-0d85ec6ddd2e","$version":"A","$type":"Bolt.GetVariable","$id":"86"},{"sourceUnit":{"$ref":"19"},"sourceKey":"assigned","destinationUnit":{"$ref":"33"},"destinationKey":"assign","guid":"9950e7bb-45d9-4dba-90f7-e706285d2f14","$type":"Bolt.ControlConnection"},{"sourceUnit":{"$ref":"17"},"sourceKey":"trigger","destinationUnit":{"$ref":"19"},"destinationKey":"assign","guid":"d4a5af9b-6a2d-4014-b61f-3862eab3d295","$type":"Bolt.ControlConnection"},{"sourceUnit":{"$ref":"33"},"sourceKey":"assigned","destinationUnit":{"$ref":"41"},"destinationKey":"assign","guid":"4480e6f4-81a8-46fe-b236-36d9424d17ec","$type":"Bolt.ControlConnection"},{"sourceUnit":{"$ref":"41"},"sourceKey":"assigned","destinationUnit":{"$ref":"82"},"destinationKey":"assign","guid":"874ec12a-b588-49bc-81e6-3ebadbdf1499","$type":"Bolt.ControlConnection"},{"sourceUnit":{"$ref":"82"},"sourceKey":"assigned","destinationUnit":{"$ref":"72"},"destinationKey":"assign","guid":"72be41a4-422b-4160-a7b4-95f91a5e1dee","$type":"Bolt.ControlConnection"},{"sourceUnit":{"$ref":"72"},"sourceKey":"assigned","destinationUnit":{"$ref":"59"},"destinationKey":"assign","guid":"99e8600a-63fb-4fcd-8d74-ca237d67a435","$type":"Bolt.ControlConnection"},{"sourceUnit":{"$ref":"69"},"sourceKey":"value","destinationUnit":{"$ref":"56"},"destinationKey":"%upwards","guid":"c183a789-b260-4e17-b022-3264cc6c935b","$type":"Bolt.ValueConnection"},{"sourceUnit":{"$ref":"86"},"sourceKey":"value","destinationUnit":{"$ref":"62"},"destinationKey":"target","guid":"8c00ac02-9f0d-4f82-9795-f5eac2fbafa0","$type":"Bolt.ValueConnection"},{"sourceUnit":{"$ref":"45"},"sourceKey":"result","destinationUnit":{"$ref":"41"},"destinationKey":"input","guid":"98b9d1a2-4608-4f3b-b2b1-42cb86f8b213","$type":"Bolt.ValueConnection"},{"sourceUnit":{"$ref":"48"},"sourceKey":"value","destinationUnit":{"$ref":"45"},"destinationKey":"%a","guid":"0fd08941-0e33-477f-9963-4d6ad4e68a12","$type":"Bolt.ValueConnection"},{"sourceUnit":{"$ref":"23"},"sourceKey":"value","destinationUnit":{"$ref":"13"},"destinationKey":"minuend","guid":"5f7b8c3f-da81-490d-82cf-e6ce8752d5be","$type":"Bolt.ValueConnection"},{"sourceUnit":{"$ref":"84"},"sourceKey":"value","destinationUnit":{"$ref":"56"},"destinationKey":"%forward","guid":"b8fa6d45-637e-4305-8c43-bb2bc8f79a8e","$type":"Bolt.ValueConnection"},{"sourceUnit":{"$ref":"67"},"sourceKey":"product","destinationUnit":{"$ref":"72"},"destinationKey":"input","guid":"f7802e73-2e9c-4cd2-a52e-8bd373c569fb","$type":"Bolt.ValueConnection"},{"sourceUnit":{"$ref":"21"},"sourceKey":"value","destinationUnit":{"$ref":"23"},"destinationKey":"target","guid":"af0a6a9d-d933-44a0-9057-7ff676ac075c","$type":"Bolt.ValueConnection"},{"sourceUnit":{"$ref":"56"},"sourceKey":"result","destinationUnit":{"$ref":"59"},"destinationKey":"input","guid":"47d46018-dae5-4faa-b5c4-9f5234630261","$type":"Bolt.ValueConnection"},{"sourceUnit":{"$ref":"26"},"sourceKey":"value","destinationUnit":{"$ref":"28"},"destinationKey":"b","guid":"4bdf2d04-cb6b-4cb2-8d03-d9461a58935f","$type":"Bolt.ValueConnection"},{"sourceUnit":{"$ref":"28"},"sourceKey":"sum","destinationUnit":{"$ref":"33"},"destinationKey":"input","guid":"deaf799a-b7b5-4d54-8ae1-5d807cf372e0","$type":"Bolt.ValueConnection"},{"sourceUnit":{"$ref":"15"},"sourceKey":"value","destinationUnit":{"$ref":"30"},"destinationKey":"target","guid":"1d5cc669-d041-43a9-9463-e25234eba02e","$type":"Bolt.ValueConnection"},{"sourceUnit":{"$ref":"36"},"sourceKey":"value","destinationUnit":{"$ref":"38"},"destinationKey":"target","guid":"c206f30e-5459-4d38-8a7c-91ec4c18d3b9","$type":"Bolt.ValueConnection"},{"sourceUnit":{"$ref":"51"},"sourceKey":"value","destinationUnit":{"$ref":"53"},"destinationKey":"target","guid":"e04fedc1-362b-4e03-a1d1-bb98fff61cea","$type":"Bolt.ValueConnection"},{"sourceUnit":{"$ref":"77"},"sourceKey":"value","destinationUnit":{"$ref":"79"},"destinationKey":"%angle","guid":"f3817606-4891-410f-995e-d40489a26ac7","$type":"Bolt.ValueConnection"},{"sourceUnit":{"$ref":"43"},"sourceKey":"value","destinationUnit":{"$ref":"48"},"destinationKey":"target","guid":"9023aecc-2a42-439a-90b2-0da42614a78c","$type":"Bolt.ValueConnection"},{"sourceUnit":{"$ref":"13"},"sourceKey":"difference","destinationUnit":{"$ref":"19"},"destinationKey":"input","guid":"7cc24dbf-af51-4c7d-a095-67b7c3c15f8b","$type":"Bolt.ValueConnection"},{"sourceUnit":{"$ref":"30"},"sourceKey":"value","destinationUnit":{"$ref":"13"},"destinationKey":"subtrahend","guid":"8167ca2f-8c70-45e2-8ded-88233efcbe70","$type":"Bolt.ValueConnection"},{"sourceUnit":{"$ref":"65"},"sourceKey":"value","destinationUnit":{"$ref":"67"},"destinationKey":"a","guid":"09810cd9-b8f3-4215-b2f5-6bdbef526770","$type":"Bolt.ValueConnection"},{"sourceUnit":{"$ref":"74"},"sourceKey":"value","destinationUnit":{"$ref":"79"},"destinationKey":"%axis","guid":"cfb4e921-e8ec-4c39-bbca-d4d64719f40c","$type":"Bolt.ValueConnection"},{"sourceUnit":{"$ref":"79"},"sourceKey":"result","destinationUnit":{"$ref":"82"},"destinationKey":"input","guid":"67cec907-3b62-4eb6-bf99-72dba54c0f4d","$type":"Bolt.ValueConnection"},{"sourceUnit":{"$ref":"62"},"sourceKey":"value","destinationUnit":{"$ref":"67"},"destinationKey":"b","guid":"be16a02c-acff-44d0-824e-6b524cdf1fa0","$type":"Bolt.ValueConnection"},{"sourceUnit":{"$ref":"53"},"sourceKey":"value","destinationUnit":{"$ref":"45"},"destinationKey":"%b","guid":"8d830dd0-059a-4892-9503-feca503a770a","$type":"Bolt.ValueConnection"},{"sourceUnit":{"$ref":"38"},"sourceKey":"value","destinationUnit":{"$ref":"28"},"destinationKey":"a","guid":"c7f11d0a-ddf0-45df-8b35-346bc7ff0740","$type":"Bolt.ValueConnection"},{"position":{"xMin":-1123.333,"yMin":-31.3333,"xMax":-179.9997,"yMax":467.0001},"label":"Get
      Player Pos from Portal Renderer","comment":null,"color":{"r":0.0,"g":0.0,"b":0.0,"a":1.0},"guid":"f07cb93e-f867-4ad8-ba69-2897558fa013","$version":"A","$type":"Ludiq.GraphGroup"},{"position":{"xMin":-123.6666,"yMin":-31.33331,"xMax":586.3336,"yMax":460.6667},"label":"Group","comment":null,"color":{"r":0.0,"g":0.0,"b":0.0,"a":1.0},"guid":"56ff95c1-67be-4abf-a0df-8ae0ddcc36ca","$version":"A","$type":"Ludiq.GraphGroup"}],"$version":"A"}}'
    _objectReferences: []
