%YAML 1.1
%TAG !u! tag:unity3d.com,2011:
--- !u!114 &11400000
MonoBehaviour:
  m_ObjectHideFlags: 0
  m_CorrespondingSourceObject: {fileID: 0}
  m_PrefabInstance: {fileID: 0}
  m_PrefabAsset: {fileID: 0}
  m_GameObject: {fileID: 0}
  m_Enabled: 1
  m_EditorHideFlags: 0
  m_Script: {fileID: -1893448595, guid: a040fb66244a7f54289914d98ea4ef7d, type: 3}
  m_Name: DestroyMultipleDoors_2
  m_EditorClassIdentifier: 
  _data:
    _json: '{"graph":{"variables":{"collection":{"$content":[{"name":"AngleToRotate","value":{"$content":0.0,"$type":"System.Single"},"$version":"A"},{"name":"TextCanPrint","value":{"$content":true,"$type":"System.Boolean"},"$version":"A"}],"$version":"A"},"$version":"A"},"controlInputDefinitions":[],"controlOutputDefinitions":[],"valueInputDefinitions":[],"valueOutputDefinitions":[],"title":null,"summary":null,"pan":{"x":2926.733,"y":262.3733},"zoom":0.9000001,"elements":[{"coroutine":false,"defaultValues":{"target":null},"position":{"x":-495.0,"y":-74.0},"guid":"c4470708-7608-4317-8cc5-a47536defe54","$version":"A","$type":"Bolt.OnTriggerEnter","$id":"11"},{"defaultValues":{},"position":{"x":3338.0,"y":249.0},"guid":"7b807a12-4180-4978-9d16-c348295a06f2","$version":"A","$type":"Bolt.Self","$id":"13"},{"chainable":false,"member":{"name":"Destroy","parameterTypes":["UnityEngine.Object"],"targetType":"UnityEngine.GameObject","targetTypeName":"UnityEngine.GameObject","$version":"A"},"defaultValues":{"%obj":null},"position":{"x":3446.0,"y":125.0},"guid":"a1e8747d-f83c-44a5-aae5-2d18e654dcd7","$version":"A","$type":"Bolt.InvokeMember","$id":"15"},{"member":{"name":"gameObject","parameterTypes":null,"targetType":"UnityEngine.GameObject","targetTypeName":"UnityEngine.GameObject","$version":"A"},"defaultValues":{"target":null},"position":{"x":-161.0,"y":500.0},"guid":"52d4ea29-43df-427b-ab6e-510eca70b1c5","$version":"A","$type":"Bolt.GetMember","$id":"18"},{"type":"System.Boolean","value":{"$content":false,"$type":"System.Boolean"},"defaultValues":{},"position":{"x":2271.0,"y":262.0},"guid":"82710c55-1732-43e8-a65b-0b6cb850b2f6","$version":"A","$type":"Bolt.Literal","$id":"21"},{"specifyFallback":false,"kind":"Application","defaultValues":{"name":{"$content":"SoundManager","$type":"System.String"}},"position":{"x":2562.0,"y":290.0},"guid":"2646f34a-34c2-4977-b348-bfba0ad2a76d","$version":"A","$type":"Bolt.GetVariable","$id":"23"},{"argumentCount":0,"defaultValues":{"name":{"$content":"InterrupteurPressed","$type":"System.String"},"target":null},"position":{"x":2772.0,"y":120.0},"guid":"3c21c51e-78ce-4348-bf8c-5e979fa1e75e","$version":"A","$type":"Bolt.TriggerCustomEvent","$id":"25"},{"chainable":false,"member":{"name":"GetKeyDown","parameterTypes":["UnityEngine.KeyCode"],"targetType":"UnityEngine.Input","targetTypeName":"UnityEngine.Input","$version":"A"},"defaultValues":{"%key":{"$content":"E","$type":"UnityEngine.KeyCode"}},"position":{"x":1971.0,"y":229.0},"guid":"98aa2b20-a018-4285-9f04-e80359718188","$version":"A","$type":"Bolt.InvokeMember","$id":"27"},{"defaultValues":{},"position":{"x":1524.0,"y":243.0},"guid":"a6b64fbf-6a43-402c-9ddd-a92be400ad72","$version":"A","$type":"Bolt.And","$id":"30"},{"chainable":false,"member":{"name":"CompareTag","parameterTypes":["System.String"],"targetType":"UnityEngine.GameObject","targetTypeName":"UnityEngine.GameObject","$version":"A"},"defaultValues":{"target":null,"%tag":{"$content":"Player","$type":"System.String"}},"position":{"x":-21.0,"y":-74.0},"guid":"4995537f-3957-48cc-8118-9c1b78b9145f","$version":"A","$type":"Bolt.InvokeMember","$id":"32"},{"coroutine":false,"defaultValues":{"target":null},"position":{"x":-402.0,"y":433.0},"guid":"6fe04128-aadc-43c4-946e-a422f103619c","$version":"A","$type":"Bolt.OnTriggerExit","$id":"35"},{"defaultValues":{},"position":{"x":148.0,"y":-26.0},"guid":"3b4d8a9c-ba69-455f-a3da-f5a6bf05943d","$version":"A","$type":"Bolt.And","$id":"37"},{"defaultValues":{},"position":{"x":289.0,"y":-74.0},"guid":"2f91b910-ef2f-42f5-bc53-eac351d3193e","$version":"A","$type":"Bolt.Branch","$id":"39"},{"member":{"name":"gameObject","parameterTypes":null,"targetType":"UnityEngine.GameObject","targetTypeName":"UnityEngine.GameObject","$version":"A"},"defaultValues":{"target":null},"position":{"x":-254.0,"y":-7.0},"guid":"ce893e4f-1a3b-48c3-8ac8-976592343d8e","$version":"A","$type":"Bolt.GetMember","$id":"41"},{"member":{"name":"gameObject","parameterTypes":null,"targetType":"UnityEngine.GameObject","targetTypeName":"UnityEngine.GameObject","$version":"A"},"defaultValues":{"target":null},"position":{"x":1147.0,"y":228.0},"guid":"ffe8faf5-6a52-4f00-a486-636dac6c8136","$version":"A","$type":"Bolt.GetMember","$id":"44"},{"chainable":false,"member":{"name":"SetActive","parameterTypes":["System.Boolean"],"targetType":"UnityEngine.GameObject","targetTypeName":"UnityEngine.GameObject","$version":"A"},"defaultValues":{"target":null,"%value":{"$content":true,"$type":"System.Boolean"}},"position":{"x":542.0,"y":-73.0},"guid":"e6175e94-552e-4bba-92da-8eb9a8073787","$version":"A","$type":"Bolt.InvokeMember","$id":"47"},{"chainable":false,"member":{"name":"SetActive","parameterTypes":["System.Boolean"],"targetType":"UnityEngine.GameObject","targetTypeName":"UnityEngine.GameObject","$version":"A"},"defaultValues":{"target":null,"%value":{"$content":false,"$type":"System.Boolean"}},"position":{"x":545.0,"y":434.0},"guid":"9dd7231a-f5fd-487d-a451-8fdfefdb9e6f","$version":"A","$type":"Bolt.InvokeMember","$id":"50"},{"chainable":false,"member":{"name":"CompareTag","parameterTypes":["System.String"],"targetType":"UnityEngine.GameObject","targetTypeName":"UnityEngine.GameObject","$version":"A"},"defaultValues":{"target":null,"%tag":{"$content":"Player","$type":"System.String"}},"position":{"x":1348.0,"y":142.0},"guid":"2c8b947f-f07a-4a79-a933-59aa68214ac7","$version":"A","$type":"Bolt.InvokeMember","$id":"53"},{"kind":"Graph","defaultValues":{"name":{"$content":"TextCanPrint","$type":"System.String"}},"position":{"x":2438.0,"y":129.0},"guid":"ba1028f8-8bec-4b46-bede-02e7e928608c","$version":"A","$type":"Bolt.SetVariable","$id":"56"},{"specifyFallback":false,"kind":"Object","defaultValues":{"name":{"$content":"DoorToDestroy","$type":"System.String"},"object":null},"position":{"x":2957.0,"y":297.0},"guid":"db0021d2-1a01-4e26-b232-85dd5903c0b1","$version":"A","$type":"Bolt.GetVariable","$id":"58"},{"chainable":false,"member":{"name":"CompareTag","parameterTypes":["System.String"],"targetType":"UnityEngine.GameObject","targetTypeName":"UnityEngine.GameObject","$version":"A"},"defaultValues":{"target":null,"%tag":{"$content":"Player","$type":"System.String"}},"position":{"x":72.0,"y":433.0},"guid":"54cde518-fc4f-46ac-bcdd-d9b63a9ab636","$version":"A","$type":"Bolt.InvokeMember","$id":"60"},{"specifyFallback":false,"kind":"Graph","defaultValues":{"name":{"$content":"TextCanPrint","$type":"System.String"}},"position":{"x":1328.0,"y":317.0},"guid":"2ebef132-9fcf-4d4e-824e-69d3afdcb225","$version":"A","$type":"Bolt.GetVariable","$id":"63"},{"defaultValues":{},"position":{"x":2171.0,"y":138.0},"guid":"b4c98728-0368-4d6d-bbdd-93f6cf930d95","$version":"A","$type":"Bolt.Branch","$id":"65"},{"chainable":false,"member":{"name":"SetActive","parameterTypes":["System.Boolean"],"targetType":"UnityEngine.GameObject","targetTypeName":"UnityEngine.GameObject","$version":"A"},"defaultValues":{"target":null,"%value":{"$content":false,"$type":"System.Boolean"}},"position":{"x":1875.0,"y":347.0},"guid":"0d981a49-acff-4943-8f98-d482db60ccb5","$version":"A","$type":"Bolt.InvokeMember","$id":"67"},{"specifyFallback":false,"kind":"Graph","defaultValues":{"name":{"$content":"TextCanPrint","$type":"System.String"}},"position":{"x":-42.0,"y":64.0},"guid":"7425855f-79bf-41e3-b83b-bd4e61f00ea4","$version":"A","$type":"Bolt.GetVariable","$id":"70"},{"defaultValues":{},"position":{"x":245.0,"y":433.0},"guid":"cce115d3-5ffb-4f5e-99cd-1e9af84fa1b4","$version":"A","$type":"Bolt.Branch","$id":"72"},{"defaultValues":{},"position":{"x":1648.0,"y":142.0},"guid":"3f7c8020-e9a0-4b05-8223-8f0d5d84eb0e","$version":"A","$type":"Bolt.Branch","$id":"74"},{"specifyFallback":false,"kind":"Object","defaultValues":{"name":{"$content":"Text_To_show","$type":"System.String"},"object":null},"position":{"x":1646.0,"y":457.0},"guid":"cae2d2d4-829c-460d-86aa-82b908d054cf","$version":"A","$type":"Bolt.GetVariable","$id":"76"},{"argumentCount":0,"defaultValues":{"name":{"$content":"Switch_2","$type":"System.String"},"target":null},"position":{"x":3191.0,"y":108.0},"guid":"5397772f-30b9-4e7a-a482-29ead960c1d7","$version":"A","$type":"Bolt.TriggerCustomEvent","$id":"78"},{"coroutine":false,"defaultValues":{"target":null},"position":{"x":891.0,"y":146.0},"guid":"8da33bba-6ef0-4171-b1fc-0b9800a479fc","$version":"A","$type":"Bolt.OnTriggerStay","$id":"80"},{"specifyFallback":false,"kind":"Object","defaultValues":{"name":{"$content":"Text_To_show","$type":"System.String"},"object":null},"position":{"x":316.0,"y":544.0},"guid":"7a46837f-dee2-4d8b-aa02-7567f379df76","$version":"A","$type":"Bolt.GetVariable","$id":"82"},{"specifyFallback":false,"kind":"Object","defaultValues":{"name":{"$content":"Text_To_show","$type":"System.String"},"object":null},"position":{"x":325.0,"y":59.0},"guid":"6ced5b70-d93e-4551-bc71-e97f44986266","$version":"A","$type":"Bolt.GetVariable","$id":"84"},{"chainable":false,"member":{"name":"material","parameterTypes":null,"targetType":"UnityEngine.MeshRenderer","targetTypeName":"UnityEngine.MeshRenderer","$version":"A"},"defaultValues":{"target":null,"input":{"$content":0,"$type":"UnityEngine.Object"}},"position":{"x":3404.0,"y":324.0},"guid":"9db1d31c-ca61-4c51-98f4-e0b36cdbe811","$version":"A","$type":"Bolt.SetMember","$id":"86"},{"sourceUnit":{"$ref":"74"},"sourceKey":"ifTrue","destinationUnit":{"$ref":"65"},"destinationKey":"enter","guid":"1b737ece-4cb9-4f5b-b66d-c8b182fb5798","$type":"Bolt.ControlConnection"},{"sourceUnit":{"$ref":"72"},"sourceKey":"ifTrue","destinationUnit":{"$ref":"50"},"destinationKey":"enter","guid":"ca68f868-535f-4d33-aeb9-48ab0515e694","$type":"Bolt.ControlConnection"},{"sourceUnit":{"$ref":"11"},"sourceKey":"trigger","destinationUnit":{"$ref":"32"},"destinationKey":"enter","guid":"0c6b5f60-15d7-497d-ad4c-8d4bf26b493c","$type":"Bolt.ControlConnection"},{"sourceUnit":{"$ref":"80"},"sourceKey":"trigger","destinationUnit":{"$ref":"53"},"destinationKey":"enter","guid":"6a0675aa-2b4b-4b18-8938-059a8f9b868f","$type":"Bolt.ControlConnection"},{"sourceUnit":{"$ref":"53"},"sourceKey":"exit","destinationUnit":{"$ref":"74"},"destinationKey":"enter","guid":"9c71aed3-86e2-4690-812a-4986b1d1bab1","$type":"Bolt.ControlConnection"},{"sourceUnit":{"$ref":"32"},"sourceKey":"exit","destinationUnit":{"$ref":"39"},"destinationKey":"enter","guid":"b8490a15-c748-4978-90eb-c81c8e3d9649","$type":"Bolt.ControlConnection"},{"sourceUnit":{"$ref":"39"},"sourceKey":"ifTrue","destinationUnit":{"$ref":"47"},"destinationKey":"enter","guid":"1fbbec0a-9cac-4d25-b159-54c88185c078","$type":"Bolt.ControlConnection"},{"sourceUnit":{"$ref":"56"},"sourceKey":"assigned","destinationUnit":{"$ref":"25"},"destinationKey":"enter","guid":"4366537f-a17e-4398-8dee-aec2cc41b01a","$type":"Bolt.ControlConnection"},{"sourceUnit":{"$ref":"25"},"sourceKey":"exit","destinationUnit":{"$ref":"78"},"destinationKey":"enter","guid":"92d35312-491f-4df9-83d8-29c7ef9f445b","$type":"Bolt.ControlConnection"},{"sourceUnit":{"$ref":"60"},"sourceKey":"exit","destinationUnit":{"$ref":"72"},"destinationKey":"enter","guid":"087456c1-6caf-4e7d-adcd-30a9871319f9","$type":"Bolt.ControlConnection"},{"sourceUnit":{"$ref":"65"},"sourceKey":"ifTrue","destinationUnit":{"$ref":"56"},"destinationKey":"assign","guid":"96251c23-564d-4d9e-ad3f-4c90d929ceba","$type":"Bolt.ControlConnection"},{"sourceUnit":{"$ref":"74"},"sourceKey":"ifFalse","destinationUnit":{"$ref":"67"},"destinationKey":"enter","guid":"3694712a-8474-40b6-a889-9092647b3cb2","$type":"Bolt.ControlConnection"},{"sourceUnit":{"$ref":"35"},"sourceKey":"trigger","destinationUnit":{"$ref":"60"},"destinationKey":"enter","guid":"1d0507f4-8b3e-45dd-89b8-d75c4e04a355","$type":"Bolt.ControlConnection"},{"sourceUnit":{"$ref":"78"},"sourceKey":"exit","destinationUnit":{"$ref":"86"},"destinationKey":"assign","guid":"0ea5b958-aac4-49c0-87ab-a0ada3299a98","$type":"Bolt.ControlConnection"},{"sourceUnit":{"$ref":"35"},"sourceKey":"collider","destinationUnit":{"$ref":"18"},"destinationKey":"target","guid":"45cde8a7-b674-4c1d-b8d4-effe58358816","$type":"Bolt.ValueConnection"},{"sourceUnit":{"$ref":"37"},"sourceKey":"result","destinationUnit":{"$ref":"39"},"destinationKey":"condition","guid":"b406033b-2ecf-494b-b163-85d4b13c96ed","$type":"Bolt.ValueConnection"},{"sourceUnit":{"$ref":"30"},"sourceKey":"result","destinationUnit":{"$ref":"74"},"destinationKey":"condition","guid":"9d1bdf45-c059-4db8-8e21-3abcebf410e8","$type":"Bolt.ValueConnection"},{"sourceUnit":{"$ref":"84"},"sourceKey":"value","destinationUnit":{"$ref":"47"},"destinationKey":"target","guid":"0bcf0f59-d9d6-48d3-84ae-0e2b47ee3a87","$type":"Bolt.ValueConnection"},{"sourceUnit":{"$ref":"58"},"sourceKey":"value","destinationUnit":{"$ref":"78"},"destinationKey":"target","guid":"37af6ffb-bf21-46a8-a626-4b7529821091","$type":"Bolt.ValueConnection"},{"sourceUnit":{"$ref":"41"},"sourceKey":"value","destinationUnit":{"$ref":"32"},"destinationKey":"target","guid":"fe7de274-f7d3-4a6e-848d-260f4a55df3d","$type":"Bolt.ValueConnection"},{"sourceUnit":{"$ref":"76"},"sourceKey":"value","destinationUnit":{"$ref":"67"},"destinationKey":"target","guid":"ee98e164-3dc0-42d8-b482-1a62ccc5b012","$type":"Bolt.ValueConnection"},{"sourceUnit":{"$ref":"60"},"sourceKey":"result","destinationUnit":{"$ref":"72"},"destinationKey":"condition","guid":"857584c6-0b41-41ce-8208-88428820a320","$type":"Bolt.ValueConnection"},{"sourceUnit":{"$ref":"44"},"sourceKey":"value","destinationUnit":{"$ref":"53"},"destinationKey":"target","guid":"cd65a96c-cea5-4bdd-ab10-473db3be6e4d","$type":"Bolt.ValueConnection"},{"sourceUnit":{"$ref":"21"},"sourceKey":"output","destinationUnit":{"$ref":"56"},"destinationKey":"input","guid":"f94a9c31-6dfa-499d-8b31-a88a6a593acf","$type":"Bolt.ValueConnection"},{"sourceUnit":{"$ref":"53"},"sourceKey":"result","destinationUnit":{"$ref":"30"},"destinationKey":"a","guid":"463aa91f-bd90-4a54-9aa0-fd08c566350b","$type":"Bolt.ValueConnection"},{"sourceUnit":{"$ref":"32"},"sourceKey":"result","destinationUnit":{"$ref":"37"},"destinationKey":"a","guid":"ebcd5c91-09be-4fe9-beef-e8f7c484be7b","$type":"Bolt.ValueConnection"},{"sourceUnit":{"$ref":"11"},"sourceKey":"collider","destinationUnit":{"$ref":"41"},"destinationKey":"target","guid":"4948d63b-7385-4c9d-88bc-d6d0ca895fb3","$type":"Bolt.ValueConnection"},{"sourceUnit":{"$ref":"82"},"sourceKey":"value","destinationUnit":{"$ref":"50"},"destinationKey":"target","guid":"efd828e8-af70-4fe7-810c-88d1d52a2098","$type":"Bolt.ValueConnection"},{"sourceUnit":{"$ref":"80"},"sourceKey":"collider","destinationUnit":{"$ref":"44"},"destinationKey":"target","guid":"f9f31d61-2766-4c6a-b2f4-011956429d9a","$type":"Bolt.ValueConnection"},{"sourceUnit":{"$ref":"70"},"sourceKey":"value","destinationUnit":{"$ref":"37"},"destinationKey":"b","guid":"a8ba430c-be1e-470e-a1f1-17105a9c6ac2","$type":"Bolt.ValueConnection"},{"sourceUnit":{"$ref":"18"},"sourceKey":"value","destinationUnit":{"$ref":"60"},"destinationKey":"target","guid":"7e149473-7097-4269-8953-724802924bb0","$type":"Bolt.ValueConnection"},{"sourceUnit":{"$ref":"23"},"sourceKey":"value","destinationUnit":{"$ref":"25"},"destinationKey":"target","guid":"722d613d-1a7a-4acd-a34f-b088e8411d5b","$type":"Bolt.ValueConnection"},{"sourceUnit":{"$ref":"27"},"sourceKey":"result","destinationUnit":{"$ref":"65"},"destinationKey":"condition","guid":"145baf05-74bd-4c22-bb90-d8abb353032e","$type":"Bolt.ValueConnection"},{"sourceUnit":{"$ref":"63"},"sourceKey":"value","destinationUnit":{"$ref":"30"},"destinationKey":"b","guid":"e510289b-be9b-4b84-807c-a633c0e776ea","$type":"Bolt.ValueConnection"},{"sourceUnit":{"$ref":"13"},"sourceKey":"self","destinationUnit":{"$ref":"15"},"destinationKey":"%obj","guid":"7637d98e-8ba9-4225-9afb-dd9e1ff64143","$type":"Bolt.ValueConnection"}],"$version":"A"}}'
    _objectReferences:
    - {fileID: 2100000, guid: 929c72c94f4ff164597013ecb1b7025d, type: 2}
