%YAML 1.1
%TAG !u! tag:unity3d.com,2011:
--- !u!1 &9102728532754730826
GameObject:
  m_ObjectHideFlags: 0
  m_CorrespondingSourceObject: {fileID: 0}
  m_PrefabInstance: {fileID: 0}
  m_PrefabAsset: {fileID: 0}
  serializedVersion: 6
  m_Component:
  - component: {fileID: 482309158819440564}
  m_Layer: 0
  m_Name: Corridor_Door
  m_TagString: Untagged
  m_Icon: {fileID: 0}
  m_NavMeshLayer: 0
  m_StaticEditorFlags: 0
  m_IsActive: 1
--- !u!4 &482309158819440564
Transform:
  m_ObjectHideFlags: 0
  m_CorrespondingSourceObject: {fileID: 0}
  m_PrefabInstance: {fileID: 0}
  m_PrefabAsset: {fileID: 0}
  m_GameObject: {fileID: 9102728532754730826}
  m_LocalRotation: {x: 0, y: 0, z: 0, w: 1}
  m_LocalPosition: {x: 0, y: 0, z: 0}
  m_LocalScale: {x: 1, y: 1, z: 1}
  m_Children:
  - {fileID: 6542101014118434851}
  - {fileID: 1464385890580430362}
  m_Father: {fileID: 0}
  m_RootOrder: 0
  m_LocalEulerAnglesHint: {x: 0, y: 0, z: 0}
--- !u!1001 &1444077887226346097
PrefabInstance:
  m_ObjectHideFlags: 0
  serializedVersion: 2
  m_Modification:
    m_TransformParent: {fileID: 482309158819440564}
    m_Modifications:
    - target: {fileID: 25031595773428843, guid: 9c9755e61ac984a4199386e41dca0708,
        type: 3}
      propertyPath: m_LocalPosition.x
      value: -0.23
      objectReference: {fileID: 0}
    - target: {fileID: 25031595773428843, guid: 9c9755e61ac984a4199386e41dca0708,
        type: 3}
      propertyPath: m_LocalPosition.y
      value: 0
      objectReference: {fileID: 0}
    - target: {fileID: 25031595773428843, guid: 9c9755e61ac984a4199386e41dca0708,
        type: 3}
      propertyPath: m_LocalPosition.z
      value: 0
      objectReference: {fileID: 0}
    - target: {fileID: 25031595773428843, guid: 9c9755e61ac984a4199386e41dca0708,
        type: 3}
      propertyPath: m_LocalRotation.x
      value: -0.5
      objectReference: {fileID: 0}
    - target: {fileID: 25031595773428843, guid: 9c9755e61ac984a4199386e41dca0708,
        type: 3}
      propertyPath: m_LocalRotation.y
      value: -0.5
      objectReference: {fileID: 0}
    - target: {fileID: 25031595773428843, guid: 9c9755e61ac984a4199386e41dca0708,
        type: 3}
      propertyPath: m_LocalRotation.z
      value: -0.5
      objectReference: {fileID: 0}
    - target: {fileID: 25031595773428843, guid: 9c9755e61ac984a4199386e41dca0708,
        type: 3}
      propertyPath: m_LocalRotation.w
      value: 0.5
      objectReference: {fileID: 0}
    - target: {fileID: 25031595773428843, guid: 9c9755e61ac984a4199386e41dca0708,
        type: 3}
      propertyPath: m_RootOrder
      value: 1
      objectReference: {fileID: 0}
    - target: {fileID: 25031595773428843, guid: 9c9755e61ac984a4199386e41dca0708,
        type: 3}
      propertyPath: m_LocalEulerAnglesHint.x
      value: -90
      objectReference: {fileID: 0}
    - target: {fileID: 25031595773428843, guid: 9c9755e61ac984a4199386e41dca0708,
        type: 3}
      propertyPath: m_LocalEulerAnglesHint.y
      value: -90
      objectReference: {fileID: 0}
    - target: {fileID: 25031595773428843, guid: 9c9755e61ac984a4199386e41dca0708,
        type: 3}
      propertyPath: m_LocalEulerAnglesHint.z
      value: 0
      objectReference: {fileID: 0}
    - target: {fileID: 3747429452490972380, guid: 9c9755e61ac984a4199386e41dca0708,
        type: 3}
      propertyPath: m_Name
      value: corridor_door (2)
      objectReference: {fileID: 0}
    m_RemovedComponents: []
  m_SourcePrefab: {fileID: 100100000, guid: 9c9755e61ac984a4199386e41dca0708, type: 3}
--- !u!4 &1464385890580430362 stripped
Transform:
  m_CorrespondingSourceObject: {fileID: 25031595773428843, guid: 9c9755e61ac984a4199386e41dca0708,
    type: 3}
  m_PrefabInstance: {fileID: 1444077887226346097}
  m_PrefabAsset: {fileID: 0}
--- !u!1001 &6526516508426505288
PrefabInstance:
  m_ObjectHideFlags: 0
  serializedVersion: 2
  m_Modification:
    m_TransformParent: {fileID: 482309158819440564}
    m_Modifications:
    - target: {fileID: 25031595773428843, guid: 9c9755e61ac984a4199386e41dca0708,
        type: 3}
      propertyPath: m_LocalPosition.x
      value: 0.23
      objectReference: {fileID: 0}
    - target: {fileID: 25031595773428843, guid: 9c9755e61ac984a4199386e41dca0708,
        type: 3}
      propertyPath: m_LocalPosition.y
      value: 0
      objectReference: {fileID: 0}
    - target: {fileID: 25031595773428843, guid: 9c9755e61ac984a4199386e41dca0708,
        type: 3}
      propertyPath: m_LocalPosition.z
      value: 0
      objectReference: {fileID: 0}
    - target: {fileID: 25031595773428843, guid: 9c9755e61ac984a4199386e41dca0708,
        type: 3}
      propertyPath: m_LocalRotation.x
      value: -0.5
      objectReference: {fileID: 0}
    - target: {fileID: 25031595773428843, guid: 9c9755e61ac984a4199386e41dca0708,
        type: 3}
      propertyPath: m_LocalRotation.y
      value: 0.5
      objectReference: {fileID: 0}
    - target: {fileID: 25031595773428843, guid: 9c9755e61ac984a4199386e41dca0708,
        type: 3}
      propertyPath: m_LocalRotation.z
      value: 0.5
      objectReference: {fileID: 0}
    - target: {fileID: 25031595773428843, guid: 9c9755e61ac984a4199386e41dca0708,
        type: 3}
      propertyPath: m_LocalRotation.w
      value: 0.5
      objectReference: {fileID: 0}
    - target: {fileID: 25031595773428843, guid: 9c9755e61ac984a4199386e41dca0708,
        type: 3}
      propertyPath: m_RootOrder
      value: 0
      objectReference: {fileID: 0}
    - target: {fileID: 25031595773428843, guid: 9c9755e61ac984a4199386e41dca0708,
        type: 3}
      propertyPath: m_LocalEulerAnglesHint.x
      value: -90
      objectReference: {fileID: 0}
    - target: {fileID: 25031595773428843, guid: 9c9755e61ac984a4199386e41dca0708,
        type: 3}
      propertyPath: m_LocalEulerAnglesHint.y
      value: 90
      objectReference: {fileID: 0}
    - target: {fileID: 25031595773428843, guid: 9c9755e61ac984a4199386e41dca0708,
        type: 3}
      propertyPath: m_LocalEulerAnglesHint.z
      value: 0
      objectReference: {fileID: 0}
    - target: {fileID: 2908251365589078449, guid: 9c9755e61ac984a4199386e41dca0708,
        type: 3}
      propertyPath: m_Size.x
      value: 1.8951223
      objectReference: {fileID: 0}
    - target: {fileID: 2908251365589078449, guid: 9c9755e61ac984a4199386e41dca0708,
        type: 3}
      propertyPath: m_Center.x
      value: -2.0383654
      objectReference: {fileID: 0}
    - target: {fileID: 3747429452490972380, guid: 9c9755e61ac984a4199386e41dca0708,
        type: 3}
      propertyPath: m_Name
      value: corridor_door (1)
      objectReference: {fileID: 0}
    - target: {fileID: 5571875566261467054, guid: 9c9755e61ac984a4199386e41dca0708,
        type: 3}
      propertyPath: m_Enabled
      value: 1
      objectReference: {fileID: 0}
    - target: {fileID: 7566046035557518586, guid: 9c9755e61ac984a4199386e41dca0708,
        type: 3}
      propertyPath: m_Size.x
      value: 1.9309931
      objectReference: {fileID: 0}
    - target: {fileID: 7566046035557518586, guid: 9c9755e61ac984a4199386e41dca0708,
        type: 3}
      propertyPath: m_Center.x
      value: 2.0204296
      objectReference: {fileID: 0}
    m_RemovedComponents: []
  m_SourcePrefab: {fileID: 100100000, guid: 9c9755e61ac984a4199386e41dca0708, type: 3}
--- !u!4 &6542101014118434851 stripped
Transform:
  m_CorrespondingSourceObject: {fileID: 25031595773428843, guid: 9c9755e61ac984a4199386e41dca0708,
    type: 3}
  m_PrefabInstance: {fileID: 6526516508426505288}
  m_PrefabAsset: {fileID: 0}
