%YAML 1.1
%TAG !u! tag:unity3d.com,2011:
--- !u!1 &8720281119790801867
GameObject:
  m_ObjectHideFlags: 0
  m_CorrespondingSourceObject: {fileID: 0}
  m_PrefabInstance: {fileID: 0}
  m_PrefabAsset: {fileID: 0}
  serializedVersion: 6
  m_Component:
  - component: {fileID: 3413071714904839332}
  m_Layer: 0
  m_Name: Corridor_Ceiling
  m_TagString: Untagged
  m_Icon: {fileID: 0}
  m_NavMeshLayer: 0
  m_StaticEditorFlags: 0
  m_IsActive: 1
--- !u!4 &3413071714904839332
Transform:
  m_ObjectHideFlags: 0
  m_CorrespondingSourceObject: {fileID: 0}
  m_PrefabInstance: {fileID: 0}
  m_PrefabAsset: {fileID: 0}
  m_GameObject: {fileID: 8720281119790801867}
  m_LocalRotation: {x: -0, y: -0, z: -0, w: 1}
  m_LocalPosition: {x: 0, y: 0, z: 0}
  m_LocalScale: {x: 1, y: 1, z: 1}
  m_Children:
  - {fileID: 1778578614278921778}
  - {fileID: 6860469704067682567}
  m_Father: {fileID: 0}
  m_RootOrder: 0
  m_LocalEulerAnglesHint: {x: 0, y: 0, z: 0}
--- !u!1001 &2129187900634848638
PrefabInstance:
  m_ObjectHideFlags: 0
  serializedVersion: 2
  m_Modification:
    m_TransformParent: {fileID: 3413071714904839332}
    m_Modifications:
    - target: {fileID: 370037128540046156, guid: 17c009ee04f36a74899cac6984ef405e,
        type: 3}
      propertyPath: m_LocalPosition.x
      value: -1.494
      objectReference: {fileID: 0}
    - target: {fileID: 370037128540046156, guid: 17c009ee04f36a74899cac6984ef405e,
        type: 3}
      propertyPath: m_LocalPosition.y
      value: 0
      objectReference: {fileID: 0}
    - target: {fileID: 370037128540046156, guid: 17c009ee04f36a74899cac6984ef405e,
        type: 3}
      propertyPath: m_LocalPosition.z
      value: 0
      objectReference: {fileID: 0}
    - target: {fileID: 370037128540046156, guid: 17c009ee04f36a74899cac6984ef405e,
        type: 3}
      propertyPath: m_LocalRotation.x
      value: -0.7071068
      objectReference: {fileID: 0}
    - target: {fileID: 370037128540046156, guid: 17c009ee04f36a74899cac6984ef405e,
        type: 3}
      propertyPath: m_LocalRotation.y
      value: -0
      objectReference: {fileID: 0}
    - target: {fileID: 370037128540046156, guid: 17c009ee04f36a74899cac6984ef405e,
        type: 3}
      propertyPath: m_LocalRotation.z
      value: -0
      objectReference: {fileID: 0}
    - target: {fileID: 370037128540046156, guid: 17c009ee04f36a74899cac6984ef405e,
        type: 3}
      propertyPath: m_LocalRotation.w
      value: 0.7071068
      objectReference: {fileID: 0}
    - target: {fileID: 370037128540046156, guid: 17c009ee04f36a74899cac6984ef405e,
        type: 3}
      propertyPath: m_RootOrder
      value: 0
      objectReference: {fileID: 0}
    - target: {fileID: 370037128540046156, guid: 17c009ee04f36a74899cac6984ef405e,
        type: 3}
      propertyPath: m_LocalEulerAnglesHint.x
      value: 0
      objectReference: {fileID: 0}
    - target: {fileID: 370037128540046156, guid: 17c009ee04f36a74899cac6984ef405e,
        type: 3}
      propertyPath: m_LocalEulerAnglesHint.y
      value: 0
      objectReference: {fileID: 0}
    - target: {fileID: 370037128540046156, guid: 17c009ee04f36a74899cac6984ef405e,
        type: 3}
      propertyPath: m_LocalEulerAnglesHint.z
      value: 0
      objectReference: {fileID: 0}
    - target: {fileID: 1038486955574532598, guid: 17c009ee04f36a74899cac6984ef405e,
        type: 3}
      propertyPath: m_Name
      value: corridor_top
      objectReference: {fileID: 0}
    m_RemovedComponents: []
  m_SourcePrefab: {fileID: 100100000, guid: 17c009ee04f36a74899cac6984ef405e, type: 3}
--- !u!4 &1778578614278921778 stripped
Transform:
  m_CorrespondingSourceObject: {fileID: 370037128540046156, guid: 17c009ee04f36a74899cac6984ef405e,
    type: 3}
  m_PrefabInstance: {fileID: 2129187900634848638}
  m_PrefabAsset: {fileID: 0}
--- !u!1001 &6491914768744272459
PrefabInstance:
  m_ObjectHideFlags: 0
  serializedVersion: 2
  m_Modification:
    m_TransformParent: {fileID: 3413071714904839332}
    m_Modifications:
    - target: {fileID: 370037128540046156, guid: 17c009ee04f36a74899cac6984ef405e,
        type: 3}
      propertyPath: m_LocalPosition.x
      value: 1.494
      objectReference: {fileID: 0}
    - target: {fileID: 370037128540046156, guid: 17c009ee04f36a74899cac6984ef405e,
        type: 3}
      propertyPath: m_LocalPosition.y
      value: 0
      objectReference: {fileID: 0}
    - target: {fileID: 370037128540046156, guid: 17c009ee04f36a74899cac6984ef405e,
        type: 3}
      propertyPath: m_LocalPosition.z
      value: 0
      objectReference: {fileID: 0}
    - target: {fileID: 370037128540046156, guid: 17c009ee04f36a74899cac6984ef405e,
        type: 3}
      propertyPath: m_LocalRotation.x
      value: 0
      objectReference: {fileID: 0}
    - target: {fileID: 370037128540046156, guid: 17c009ee04f36a74899cac6984ef405e,
        type: 3}
      propertyPath: m_LocalRotation.y
      value: 0.7071068
      objectReference: {fileID: 0}
    - target: {fileID: 370037128540046156, guid: 17c009ee04f36a74899cac6984ef405e,
        type: 3}
      propertyPath: m_LocalRotation.z
      value: 0.7071068
      objectReference: {fileID: 0}
    - target: {fileID: 370037128540046156, guid: 17c009ee04f36a74899cac6984ef405e,
        type: 3}
      propertyPath: m_LocalRotation.w
      value: 0
      objectReference: {fileID: 0}
    - target: {fileID: 370037128540046156, guid: 17c009ee04f36a74899cac6984ef405e,
        type: 3}
      propertyPath: m_RootOrder
      value: 1
      objectReference: {fileID: 0}
    - target: {fileID: 370037128540046156, guid: 17c009ee04f36a74899cac6984ef405e,
        type: 3}
      propertyPath: m_LocalEulerAnglesHint.x
      value: -90.00001
      objectReference: {fileID: 0}
    - target: {fileID: 370037128540046156, guid: 17c009ee04f36a74899cac6984ef405e,
        type: 3}
      propertyPath: m_LocalEulerAnglesHint.y
      value: 0
      objectReference: {fileID: 0}
    - target: {fileID: 370037128540046156, guid: 17c009ee04f36a74899cac6984ef405e,
        type: 3}
      propertyPath: m_LocalEulerAnglesHint.z
      value: 180
      objectReference: {fileID: 0}
    - target: {fileID: 1038486955574532598, guid: 17c009ee04f36a74899cac6984ef405e,
        type: 3}
      propertyPath: m_Name
      value: corridor_top (1)
      objectReference: {fileID: 0}
    m_RemovedComponents: []
  m_SourcePrefab: {fileID: 100100000, guid: 17c009ee04f36a74899cac6984ef405e, type: 3}
--- !u!4 &6860469704067682567 stripped
Transform:
  m_CorrespondingSourceObject: {fileID: 370037128540046156, guid: 17c009ee04f36a74899cac6984ef405e,
    type: 3}
  m_PrefabInstance: {fileID: 6491914768744272459}
  m_PrefabAsset: {fileID: 0}
